{
  "name": "CrusadeBeams",
  "author": "Crusade",
  "description": "Crusade's 3d beams ported to StarLoader",
  "version": "1.0",
  "starmade_version": "0.202.110",
  "client_mod": true,
  "server_mod": false,
  "main_class": "me.jakev.crusadebeams.CrusadeBeams",
  "smd_resource_id": 8288,
  "dependencies": [
    -1
  ],
  "core_mod": false,
  "requires_class_resize": false
}