{
  "name": "SMWorldBorder",
  "author": "JakeV",
  "description": "Limit area of play",
  "version": "0.2",
  "starmade_version": "0.202.110",
  "client_mod": false,
  "server_mod": false,
  "main_class": "me.jakev.smworldborder.SMWorldBorder",
  "smd_resource_id": 8169,
  "dependencies": [
    -1
  ],
  "core_mod": false,
  "requires_class_resize": false
}