{
  "name": "RealDebris",
  "author": "JakeV",
  "description": "When a block is destroyed it is dropped into space. Thats it",
  "version": "0.1",
  "starmade_version": "0.202.114",
  "client_mod": false,
  "server_mod": false,
  "main_class": "me.jakev.realdebree.RealDebree",
  "smd_resource_id": 8281,
  "dependencies": [
    -1
  ],
  "core_mod": false,
  "requires_class_resize": false
}